…
    #> Loading stashed object.

``` r
goi_mutations
```

    #> # A tibble: 4,590 x 14
    #>    hugo_symbol tumor_sample_ba… mutation_type amino_acid_chan… dataset
    #>    <chr>       <chr>            <chr>         <chr>            <chr>  
    #>  1 BRAF        coadread_dfci_2… missense_mut… V600E            coadre…
    #>  2 KRAS        coadread_dfci_2… missense_mut… G13D             coadre…
    #>  3 KRAS        coadread_dfci_2… missense_mut… G12D             coadre…
    #>  4 PIK3CA      coadread_dfci_2… missense_mut… E545G            coadre…
    #>  5 KRAS        coadread_dfci_2… missense_mut… G13D             coadre…
    #>  6 BRAF        coadread_dfci_2… missense_mut… V600E            coadre…
    #>  7 KRAS        coadread_dfci_2… frame_shift_… K185Nfs*4        coadre…
    #>  8 PTEN        coadread_dfci_2… frame_shift_… K164Rfs*3        coadre…
    #>  9 KRAS        coadread_dfci_2… missense_mut… G13D             coadre…
    #> 10 KRAS        coadread_dfci_2… missense_mut… A146T            coadre…
    #> # … with 4,580 more rows, and 9 more variables: amino_position <dbl>,
    #> #   genomic_position <chr>, target <chr>, VAF <dbl>, cancer <chr>,
    #> #   mutation_type_hr <chr>, is_hypermutant <lgl>, ras <chr>, ras_allele <chr>
…
    #> Loading stashed object.

``` r
goi_mutations_anno
```

    #> # A tibble: 1,444 x 85
    #>    hugo_symbol tumor_sample_ba… mutation_type amino_acid_chan… dataset
    #>    <chr>       <chr>            <chr>         <chr>            <chr>  
    #>  1 BRAF        coadread_dfci_2… missense_mut… V600E            coadre…
    #>  2 KRAS        coadread_dfci_2… missense_mut… G13D             coadre…
    #>  3 KRAS        coadread_dfci_2… missense_mut… G12D             coadre…
    #>  4 PIK3CA      coadread_dfci_2… missense_mut… E545G            coadre…
    #>  5 KRAS        coadread_dfci_2… missense_mut… G13D             coadre…
    #>  6 BRAF        coadread_dfci_2… missense_mut… V600E            coadre…
    #>  7 KRAS        coadread_dfci_2… frame_shift_… K185Nfs*4        coadre…
    #>  8 PTEN        coadread_dfci_2… frame_shift_… K164Rfs*3        coadre…
    #>  9 KRAS        coadread_dfci_2… missense_mut… G13D             coadre…
    #> 10 KRAS        coadread_dfci_2… missense_mut… A146T            coadre…
    #> # … with 1,434 more rows, and 80 more variables: amino_position <dbl>,
    #> #   genomic_position <chr>, target <chr>, VAF <dbl>, cancer <chr>,
    #> #   mutation_type_hr <chr>, is_hypermutant <lgl>, ras <chr>, ras_allele <chr>,
    #> #   matched_row <dbl>, chr <dbl>, start <dbl>, end <dbl>, ref <chr>, alt <chr>,
    #> #   func_ref_gene <chr>, gene_ref_gene <chr>, gene_detail_ref_gene <chr>,
    #> #   exonic_func_ref_gene <chr>, aa_change_ref_gene <chr>, sift_score <dbl>,
    #> #   sift_pred <chr>, polyphen2_hdiv_score <dbl>, polyphen2_hdiv_pred <chr>,
    #> #   polyphen2_hvar_score <dbl>, polyphen2_hvar_pred <chr>, lrt_score <dbl>,
    #> #   lrt_pred <chr>, mutation_taster_score <dbl>, mutation_taster_pred <chr>,
…
    #> Loading stashed object.

``` r
goi_cna
```

    #> # A tibble: 14,496 x 6
    #>    hugo_symbol cna    tumor_sample_barc… cancer genetic_profile_id     cna_value
    #>    <chr>       <chr>  <chr>              <chr>  <chr>                      <dbl>
    #>  1 PIK3CA      normal TCGA-4N-A93T       COAD   coadread_tcga_pan_can…         0
    #>  2 PIK3CG      normal TCGA-4N-A93T       COAD   coadread_tcga_pan_can…         0
    #>  3 BRAF        normal TCGA-4N-A93T       COAD   coadread_tcga_pan_can…         0
    #>  4 PTEN        normal TCGA-4N-A93T       COAD   coadread_tcga_pan_can…         0
    #>  5 KRAS        normal TCGA-4N-A93T       COAD   coadread_tcga_pan_can…         0
    #>  6 SIRT4       normal TCGA-4N-A93T       COAD   coadread_tcga_pan_can…         0
    #>  7 PIK3CA      normal TCGA-4T-AA8H       COAD   coadread_tcga_pan_can…         1
    #>  8 PIK3CG      normal TCGA-4T-AA8H       COAD   coadread_tcga_pan_can…         1
    #>  9 BRAF        normal TCGA-4T-AA8H       COAD   coadread_tcga_pan_can…         1
    #> 10 PTEN        normal TCGA-4T-AA8H       COAD   coadread_tcga_pan_can…         1
    #> # … with 14,486 more rows

The number of samples with each CNA value per gene.

``` r
goi_cna %>%
    count(hugo_symbol, cna, cna_value)
```

    #> # A tibble: 25 x 4
    #>    hugo_symbol cna           cna_value     n
    #>    <chr>       <chr>             <dbl> <int>
    #>  1 BRAF        amplification       2       2
    #>  2 BRAF        normal             -1      17
    #>  3 BRAF        normal              0    2232
    #>  4 BRAF        normal              0.5     1
    #>  5 BRAF        normal              1     529
    #>  6 KRAS        amplification       2      20
    #>  7 KRAS        deletion           -2       1
    #>  8 KRAS        normal             -1     100
    #>  9 KRAS        normal              0    2457
    #> 10 KRAS        normal              1     203
    #> # … with 15 more rows
…
    #> Loading stashed object.

``` r
goi_rna
```

    #> # A tibble: 3,552 x 6
    #>    hugo_symbol expression tumor_sample_ba… cancer genetic_profile…
    #>    <chr>       <chr>      <chr>            <chr>  <chr>           
    #>  1 BRAF        normal     TCGA-3L-AA1B     COAD   coadread_tcga_p…
    #>  2 KRAS        normal     TCGA-3L-AA1B     COAD   coadread_tcga_p…
    #>  3 PIK3CA      normal     TCGA-3L-AA1B     COAD   coadread_tcga_p…
    #>  4 PIK3CG      normal     TCGA-3L-AA1B     COAD   coadread_tcga_p…
    #>  5 PTEN        normal     TCGA-3L-AA1B     COAD   coadread_tcga_p…
    #>  6 SIRT4       normal     TCGA-3L-AA1B     COAD   coadread_tcga_p…
    #>  7 BRAF        normal     TCGA-4N-A93T     COAD   coadread_tcga_p…
    #>  8 KRAS        normal     TCGA-4N-A93T     COAD   coadread_tcga_p…
    #>  9 PIK3CA      normal     TCGA-4N-A93T     COAD   coadread_tcga_p…
    #> 10 PIK3CG      normal     TCGA-4N-A93T     COAD   coadread_tcga_p…
    #> # … with 3,542 more rows, and 1 more variable: expression_value <dbl>
…
``` r
goi_mutations_events <- goi_mutations_data %>%
    filter(is_important_mut) %>%
    distinct(tumor_sample_barcode, hugo_symbol, is_important_mut) %>%
    mutate(is_important_mut = as.numeric(is_important_mut)) %>%
    pivot_wider(tumor_sample_barcode, 
                names_from = hugo_symbol, 
                values_from = is_important_mut,
                values_fill = list(is_important_mut = 0))
goi_mutations_events
```

    #> # A tibble: 891 x 7
    #>    tumor_sample_barcode       BRAF  KRAS PIK3CA  PTEN PIK3CG SIRT4
    #>    <chr>                     <dbl> <dbl>  <dbl> <dbl>  <dbl> <dbl>
    #>  1 coadread_dfci_2016_101930     1     0      0     0      0     0
    #>  2 coadread_dfci_2016_111        1     0      0     1      0     0
    #>  3 coadread_dfci_2016_115875     1     0      0     0      0     0
    #>  4 coadread_dfci_2016_1202       1     0      0     1      0     0
    #>  5 coadread_dfci_2016_1205       1     0      0     1      0     0
    #>  6 coadread_dfci_2016_1212       1     0      1     0      0     1
    #>  7 coadread_dfci_2016_1225       1     0      0     0      0     0
    #>  8 coadread_dfci_2016_1241       1     0      1     0      0     1
    #>  9 coadread_dfci_2016_1251       1     0      0     0      0     0
    #> 10 coadread_dfci_2016_134258     1     0      0     0      0     0
    #> # … with 881 more rows
…
